<svg xmlns="http://www.w3.org/2000/svg" width="24" height="24" viewBox="0 0 24 24">
    <g fill="none" fill-rule="evenodd">
        <path d="M0 0h24v24H0z"/>
        <path fill="#FFF" fill-rule="nonzero" d="M23.786 12.166c0 2.853-2.342 5.166-5.238 5.166-2.897 0-5.242-2.313-5.242-5.166C13.306 9.314 15.651 7 18.548 7c2.896 0 5.238 2.314 5.238 5.166M10.478 12.166c0 2.853-2.344 5.166-5.242 5.166C2.343 17.332 0 15.02 0 12.166 0 9.314 2.343 7 5.236 7c2.898 0 5.242 2.314 5.242 5.166"/>
    </g>
</svg>
