<svg xmlns="http://www.w3.org/2000/svg" width="24" height="24" viewBox="0 0 24 24">
    <g fill="none" fill-rule="evenodd">
        <path d="M0 0h24v24H0z"/>
        <path fill="#FFF" d="M20.99 6.935l-.011-.009-.007-.003-5.718-2.838a.64.64 0 0 0-.277-.064.656.656 0 0 0-.556.3L11.13 9.63l4.132 6.663 5.746-9.268a.069.069 0 0 0-.017-.09M9.316 8.421v6.044l5.413 2.687-5.413-8.73M15.542 17.555l4.456 2.211c.58.288 1.05.087 1.05-.45V8.676l-5.506 8.88M8.376 6.944L2.791 4.172a.645.645 0 0 0-.283-.073c-.245 0-.417.187-.417.503v11.967c0 .32.237.7.525.843l4.92 2.441a.805.805 0 0 0 .354.092c.306 0 .52-.234.52-.629V6.998a.06.06 0 0 0-.034-.054"/>
    </g>
</svg>
