<svg xmlns="http://www.w3.org/2000/svg" width="24" height="24" viewBox="0 0 24 24">
    <g fill="none" fill-rule="evenodd">
        <path d="M0 0h24v24H0z"/>
        <path fill="#FFF" d="M9.962 14.95V8.56l6.102 3.207-6.102 3.185zm13.4-7.499s-.22-1.567-.898-2.257c-.859-.907-1.821-.911-2.263-.964C17.041 4 12.3 4 12.3 4h-.01s-4.741 0-7.902.23c-.442.053-1.404.057-2.264.964-.677.69-.897 2.257-.897 2.257S1 9.293 1 11.133v1.726c0 1.841.226 3.682.226 3.682s.22 1.567.897 2.258c.86.906 1.989.878 2.491.972 1.807.175 7.68.229 7.68.229s4.746-.007 7.907-.237c.442-.054 1.404-.058 2.263-.964.677-.69.898-2.258.898-2.258s.226-1.84.226-3.682v-1.726c0-1.84-.226-3.682-.226-3.682z"/>
    </g>
</svg>
